{
  "name": "shared-feature-scrollbar",
  "$schema": "../../../node_modules/nx/schemas/project-schema.json",
  "sourceRoot": "libs/shared/feature-scrollbar/src",
  "prefix": "sdm",
  "tags": ["scope:shared", "type:feature"],
  "projectType": "library",
  "targets": {
    "test": {
      "executor": "@nx/jest:jest",
      "outputs": ["{workspaceRoot}/coverage/{projectRoot}"],
      "options": {
        "jestConfig": "libs/shared/feature-scrollbar/jest.config.ts"
      }
    },
    "lint": {
      "executor": "@nx/eslint:lint",
      "outputs": ["{options.outputFile}"]
    }
  }
}
